{
  "spritemap": {
    "Funky": {
      "start": 0,
      "end": 16
    },
    "bell": {
      "start": 16.25,
      "end": 16.805442
    }
  },
  "resources": [
    "TitleAudio.wav",
    "TitleAudio.ogg",
    "TitleAudio.mp3"
  ]
}